{
  "groups": {
    "vpn": [
      {
        "name": "openvpn_tcp",
        "ports": [
          80,
          443,
          8080
        ]
      },
      {
        "name": "openvpn_udp",
        "ports": [
          53,
          443,
          8443
        ]
      },
      {
        "name": "ikev2",
        "ports": [
          500,
          4500
        ]
      },
      {
        "name": "wireguard",
        "ports": [
          1337
        ]
      },
      {
        "name": "latency",
        "ports": [
          8888
        ]
      }
    ],
    "proxy": [
      {
        "name": "socks",
        "ports": [
          1080
        ]
      },
      {
        "name": "shadowsocks",
        "ports": [
          443
        ]
      },
      {
        "name": "wireguard",
        "ports": [
          1337
        ]
      },
      {
        "name": "latency",
        "ports": [
          8888
        ]
      }
    ]
  },
  "regions": [
    {
      "id": "eu_ro",
      "name": "Romania",
      "country": "RO",
      "auto_region": true,
      "servers": [
        {
          "vpn": [
            {
              "ip": "43.151.81.163",
              "cn": "vpn11200.jennifer"
            },
            {
              "ip": "148.173.22.80",
              "cn": "vpn9762.jennifer"
            },
            {
              "ip": "156.65.50.31",
              "cn": "vpn31558.jennifer"
            },
            {
              "ip": "58.133.141.17",
              "cn": "vpn43799.jennifer"
            },
            {
              "ip": "245.36.136.224",
              "cn": "vpn64341.jennifer"
            },
            {
              "ip": "19.41.44.88",
              "cn": "vpn7977.jennifer"
            },
            {
              "ip": "153.240.193.97",
              "cn": "vpn36372.jennifer"
            },
            {
              "ip": "94.121.1.157",
              "cn": "vpn21501.jennifer"
            },
            {
              "ip": "35.80.94.65",
              "cn": "vpn21520.jennifer"
            },
            {
              "ip": "213.186.232.115",
              "cn": "vpn79122.jennifer"
            }
          ],
          "proxy": [
            {
              "ip": "189.39.93.169",
              "cn": "proxy33979.jennifer"
            },
            {
              "ip": "35.114.148.245",
              "cn": "proxy96044.jennifer"
            }
          ]
        }
      ]
    },
    {
      "id": "eu_de",
      "name": "Germany",
      "country": "DE",
      "auto_region": false,
      "servers": [
        {
          "vpn": [
            {
              "ip": "105.190.13.224",
              "cn": "vpn32194.jennifer"
            },
            {
              "ip": "126.13.40.227",
              "cn": "vpn55550.jennifer"
            },
            {
              "ip": "71.238.70.12",
              "cn": "vpn32919.jennifer"
            },
            {
              "ip": "116.165.207.148",
              "cn": "vpn18269.jennifer"
            },
            {
              "ip": "203.127.197.149",
              "cn": "vpn98489.jennifer"
            },
            {
              "ip": "119.47.187.207",
              "cn": "vpn16381.jennifer"
            },
            {
              "ip": "54.78.30.103",
              "cn": "vpn11961.jennifer"
            },
            {
              "ip": "239.128.235.251",
              "cn": "vpn70409.jennifer"
            },
            {
              "ip": "27.241.45.157",
              "cn": "vpn19346.jennifer"
            },
            {
              "ip": "236.34.199.186",
              "cn": "vpn74323.jennifer"
            }
          ],
          "proxy": [
            {
              "ip": "132.71.151.198",
              "cn": "proxy5445.jennifer"
            },
            {
              "ip": "219.129.249.129",
              "cn": "proxy34749.jennifer"
            }
          ]
        }
      ]
    },
    {
      "id": "asia_in",
      "name": "India",
      "country": "IN",
      "auto_region": true,
      "servers": [
        {
          "vpn": [
            {
              "ip": "76.18.233.167",
              "cn": "vpn17428.jennifer"
            },
            {
              "ip": "252.9.32.91",
              "cn": "vpn16470.jennifer"
            },
            {
              "ip": "142.211.33.218",
              "cn": "vpn67509.jennifer"
            },
            {
              "ip": "107.140.172.70",
              "cn": "vpn75768.jennifer"
            },
            {
              "ip": "48.35.96.150",
              "cn": "vpn4157.jennifer"
            },
            {
              "ip": "123.158.86.105",
              "cn": "vpn70715.jennifer"
            },
            {
              "ip": "138.85.102.168",
              "cn": "vpn9425.jennifer"
            },
            {
              "ip": "203.125.128.186",
              "cn": "vpn96338.jennifer"
            },
            {
              "ip": "117.193.124.102",
              "cn": "vpn69963.jennifer"
            },
            {
              "ip": "87.194.50.67",
              "cn": "vpn34927.jennifer"
            }
          ],
          "proxy": [
            {
              "ip": "164.196.111.110",
              "cn": "proxy69596.jennifer"
            },
            {
              "ip": "234.39.141.17",
              "cn": "proxy96710.jennifer"
            }
          ]
        }
      ]
    }
  ]
}
